{
    "message": "Popular Playlists",
    "playlists": {
        "href": "https://api.spotify.com/v1/browse/featured-playlists?offset=5&limit=10&locale=en-US%2Cen",
        "items": [
            {
                "collaborative": false,
                "description": "Ultimate 101 Punjabi Hits with Shubh",
                "external_urls": {
                    "spotify": "https://open.spotify.com/playlist/37i9dQZF1DX5cZuAHLNjGz"
                },
                "href": "https://api.spotify.com/v1/playlists/37i9dQZF1DX5cZuAHLNjGz",
                "id": "37i9dQZF1DX5cZuAHLNjGz",
                "images": [
                    {
                        "height": null,
                        "url": "https://i.scdn.co/image/ab67706f000000020f9071523edb8a48b0e961e2",
                        "width": null
                    }
                ],
                "name": "Punjabi 101",
                "owner": {
                    "display_name": "Spotify",
                    "external_urls": {
                        "spotify": "https://open.spotify.com/user/spotify"
                    },
                    "href": "https://api.spotify.com/v1/users/spotify",
                    "id": "spotify",
                    "type": "user",
                    "uri": "spotify:user:spotify"
                },
                "primary_color": "#FFFFFf",
                "public": true,
                "snapshot_id": "ZcXfvgAAAACo971qfqjpcLSjtlG5GzLl",
                "tracks": {
                    "href": "https://api.spotify.com/v1/playlists/37i9dQZF1DX5cZuAHLNjGz/tracks",
                    "total": 101
                },
                "type": "playlist",
                "uri": "spotify:playlist:37i9dQZF1DX5cZuAHLNjGz"
            },
            {
                "collaborative": false,
                "description": "Fall in love with 00's Bollywood like never before! Cover - Bachna Ae Haseeno",
                "external_urls": {
                    "spotify": "https://open.spotify.com/playlist/37i9dQZF1DWVq1SXCH6uFn"
                },
                "href": "https://api.spotify.com/v1/playlists/37i9dQZF1DWVq1SXCH6uFn",
                "id": "37i9dQZF1DWVq1SXCH6uFn",
                "images": [
                    {
                        "height": null,
                        "url": "https://i.scdn.co/image/ab67706f000000029ea40053fb491932319307f2",
                        "width": null
                    }
                ],
                "name": "00's Love Hits",
                "owner": {
                    "display_name": "Spotify",
                    "external_urls": {
                        "spotify": "https://open.spotify.com/user/spotify"
                    },
                    "href": "https://api.spotify.com/v1/users/spotify",
                    "id": "spotify",
                    "type": "user",
                    "uri": "spotify:user:spotify"
                },
                "primary_color": "#ffffff",
                "public": true,
                "snapshot_id": "ZVjZYAAAAAA3haR+55y5Ekzpff8lE98X",
                "tracks": {
                    "href": "https://api.spotify.com/v1/playlists/37i9dQZF1DWVq1SXCH6uFn/tracks",
                    "total": 100
                },
                "type": "playlist",
                "uri": "spotify:playlist:37i9dQZF1DWVq1SXCH6uFn"
            },
            {
                "collaborative": false,
                "description": "Party-ready, biggest Bollywood dance tracks of last 10 years. Cover - Bhediya",
                "external_urls": {
                    "spotify": "https://open.spotify.com/playlist/37i9dQZF1DX8xfQRRX1PDm"
                },
                "href": "https://api.spotify.com/v1/playlists/37i9dQZF1DX8xfQRRX1PDm",
                "id": "37i9dQZF1DX8xfQRRX1PDm",
                "images": [
                    {
                        "height": null,
                        "url": "https://i.scdn.co/image/ab67706f000000022e8146e19aaf63cba9ecfc21",
                        "width": null
                    }
                ],
                "name": "Bollywood Dance Music",
                "owner": {
                    "display_name": "Spotify",
                    "external_urls": {
                        "spotify": "https://open.spotify.com/user/spotify"
                    },
                    "href": "https://api.spotify.com/v1/users/spotify",
                    "id": "spotify",
                    "type": "user",
                    "uri": "spotify:user:spotify"
                },
                "primary_color": "#ffffff",
                "public": true,
                "snapshot_id": "ZbyIUwAAAABicDcZLrev0gZPZol72PY6",
                "tracks": {
                    "href": "https://api.spotify.com/v1/playlists/37i9dQZF1DX8xfQRRX1PDm/tracks",
                    "total": 75
                },
                "type": "playlist",
                "uri": "spotify:playlist:37i9dQZF1DX8xfQRRX1PDm"
            },
            {
                "collaborative": false,
                "description": "Bollywood Central, jab baje toh seedha dil ke centre mein lage ❤️ Cover - Animal",
                "external_urls": {
                    "spotify": "https://open.spotify.com/playlist/37i9dQZF1DWXtlo6ENS92N"
                },
                "href": "https://api.spotify.com/v1/playlists/37i9dQZF1DWXtlo6ENS92N",
                "id": "37i9dQZF1DWXtlo6ENS92N",
                "images": [
                    {
                        "height": null,
                        "url": "https://i.scdn.co/image/ab67706f00000002efcd35fd64a73060bb6605e4",
                        "width": null
                    }
                ],
                "name": "Bollywood Central",
                "owner": {
                    "display_name": "Spotify",
                    "external_urls": {
                        "spotify": "https://open.spotify.com/user/spotify"
                    },
                    "href": "https://api.spotify.com/v1/users/spotify",
                    "id": "spotify",
                    "type": "user",
                    "uri": "spotify:user:spotify"
                },
                "primary_color": "#ffffff",
                "public": true,
                "snapshot_id": "ZcMjzAAAAABVB45CjgFfJHVhizTlzkim",
                "tracks": {
                    "href": "https://api.spotify.com/v1/playlists/37i9dQZF1DWXtlo6ENS92N/tracks",
                    "total": 50
                },
                "type": "playlist",
                "uri": "spotify:playlist:37i9dQZF1DWXtlo6ENS92N"
            },
            {
                "collaborative": false,
                "description": "K..K..K..Kiran to T..T..T..Tuffy, the wonderfully unique decade. Cover - Raja",
                "external_urls": {
                    "spotify": "https://open.spotify.com/playlist/37i9dQZF1DXa2huSXaKVkW"
                },
                "href": "https://api.spotify.com/v1/playlists/37i9dQZF1DXa2huSXaKVkW",
                "id": "37i9dQZF1DXa2huSXaKVkW",
                "images": [
                    {
                        "height": null,
                        "url": "https://i.scdn.co/image/ab67706f00000002ade21b666ea6464a7c693c92",
                        "width": null
                    }
                ],
                "name": "All Out 90s Hindi",
                "owner": {
                    "display_name": "Spotify",
                    "external_urls": {
                        "spotify": "https://open.spotify.com/user/spotify"
                    },
                    "href": "https://api.spotify.com/v1/users/spotify",
                    "id": "spotify",
                    "type": "user",
                    "uri": "spotify:user:spotify"
                },
                "primary_color": "#ffffff",
                "public": true,
                "snapshot_id": "Za+HlgAAAAAqWTQ7UDkK26NFvF+/qckh",
                "tracks": {
                    "href": "https://api.spotify.com/v1/playlists/37i9dQZF1DXa2huSXaKVkW/tracks",
                    "total": 100
                },
                "type": "playlist",
                "uri": "spotify:playlist:37i9dQZF1DXa2huSXaKVkW"
            },
            {
                "collaborative": false,
                "description": "Tune into the Hottest tracks of Kollywood!\nCover : Leo",
                "external_urls": {
                    "spotify": "https://open.spotify.com/playlist/37i9dQZF1DX1i3hvzHpcQV"
                },
                "href": "https://api.spotify.com/v1/playlists/37i9dQZF1DX1i3hvzHpcQV",
                "id": "37i9dQZF1DX1i3hvzHpcQV",
                "images": [
                    {
                        "height": null,
                        "url": "https://i.scdn.co/image/ab67706f000000029b6b827913a29a7aee530f05",
                        "width": null
                    }
                ],
                "name": "Hot Hits Tamil",
                "owner": {
                    "display_name": "Spotify",
                    "external_urls": {
                        "spotify": "https://open.spotify.com/user/spotify"
                    },
                    "href": "https://api.spotify.com/v1/users/spotify",
                    "id": "spotify",
                    "type": "user",
                    "uri": "spotify:user:spotify"
                },
                "primary_color": "#ffffff",
                "public": true,
                "snapshot_id": "ZbsZpwAAAAB19pDuS9QQa+wDxicjLOx1",
                "tracks": {
                    "href": "https://api.spotify.com/v1/playlists/37i9dQZF1DX1i3hvzHpcQV/tracks",
                    "total": 50
                },
                "type": "playlist",
                "uri": "spotify:playlist:37i9dQZF1DX1i3hvzHpcQV"
            },
            {
                "collaborative": false,
                "description": "Relive the '90s with these beautiful romantic hits. Cover - Dil",
                "external_urls": {
                    "spotify": "https://open.spotify.com/playlist/37i9dQZF1DXa6iPZDThhLh"
                },
                "href": "https://api.spotify.com/v1/playlists/37i9dQZF1DXa6iPZDThhLh",
                "id": "37i9dQZF1DXa6iPZDThhLh",
                "images": [
                    {
                        "height": null,
                        "url": "https://i.scdn.co/image/ab67706f000000021a6c70725e6c2bd9c771c31b",
                        "width": null
                    }
                ],
                "name": "90s Love Hits",
                "owner": {
                    "display_name": "Spotify",
                    "external_urls": {
                        "spotify": "https://open.spotify.com/user/spotify"
                    },
                    "href": "https://api.spotify.com/v1/users/spotify",
                    "id": "spotify",
                    "type": "user",
                    "uri": "spotify:user:spotify"
                },
                "primary_color": "#ffffff",
                "public": true,
                "snapshot_id": "ZVjYzwAAAACspKkpkPbAF9j6oBpAgaE6",
                "tracks": {
                    "href": "https://api.spotify.com/v1/playlists/37i9dQZF1DXa6iPZDThhLh/tracks",
                    "total": 100
                },
                "type": "playlist",
                "uri": "spotify:playlist:37i9dQZF1DXa6iPZDThhLh"
            },
            {
                "collaborative": false,
                "description": "Your weekly dose of the latest Hindi tracks. Cover - Arijit Singh",
                "external_urls": {
                    "spotify": "https://open.spotify.com/playlist/37i9dQZF1DXd8cOUiye1o2"
                },
                "href": "https://api.spotify.com/v1/playlists/37i9dQZF1DXd8cOUiye1o2",
                "id": "37i9dQZF1DXd8cOUiye1o2",
                "images": [
                    {
                        "height": null,
                        "url": "https://i.scdn.co/image/ab67706f00000002c0879c3813c2d58773deb5ba",
                        "width": null
                    }
                ],
                "name": "New Music Hindi",
                "owner": {
                    "display_name": "Spotify",
                    "external_urls": {
                        "spotify": "https://open.spotify.com/user/spotify"
                    },
                    "href": "https://api.spotify.com/v1/users/spotify",
                    "id": "spotify",
                    "type": "user",
                    "uri": "spotify:user:spotify"
                },
                "primary_color": "#ffffff",
                "public": true,
                "snapshot_id": "ZcW9egAAAAB3EPKWFR9ZNqBDsI5x82BJ",
                "tracks": {
                    "href": "https://api.spotify.com/v1/playlists/37i9dQZF1DXd8cOUiye1o2/tracks",
                    "total": 75
                },
                "type": "playlist",
                "uri": "spotify:playlist:37i9dQZF1DXd8cOUiye1o2"
            },
            {
                "collaborative": false,
                "description": "A mega mix of 75 favorites from the last few years! ",
                "external_urls": {
                    "spotify": "https://open.spotify.com/playlist/37i9dQZF1DXbYM3nMM0oPk"
                },
                "href": "https://api.spotify.com/v1/playlists/37i9dQZF1DXbYM3nMM0oPk",
                "id": "37i9dQZF1DXbYM3nMM0oPk",
                "images": [
                    {
                        "height": null,
                        "url": "https://i.scdn.co/image/ab67706f000000026125e14e8384f5312339e67e",
                        "width": null
                    }
                ],
                "name": "Mega Hit Mix",
                "owner": {
                    "display_name": "Spotify",
                    "external_urls": {
                        "spotify": "https://open.spotify.com/user/spotify"
                    },
                    "href": "https://api.spotify.com/v1/users/spotify",
                    "id": "spotify",
                    "type": "user",
                    "uri": "spotify:user:spotify"
                },
                "primary_color": "#ffffff",
                "public": true,
                "snapshot_id": "ZWovCgAAAACPtXtTx6FWCRzjyzlhv9ZJ",
                "tracks": {
                    "href": "https://api.spotify.com/v1/playlists/37i9dQZF1DXbYM3nMM0oPk/tracks",
                    "total": 75
                },
                "type": "playlist",
                "uri": "spotify:playlist:37i9dQZF1DXbYM3nMM0oPk"
            },
            {
                "collaborative": false,
                "description": "India's Ultimate Love Playlist featuring a mix of Hindi, Punjabi and English Songs. \n\nCover- Ranbir Kapoor & Rashmika Mandanna",
                "external_urls": {
                    "spotify": "https://open.spotify.com/playlist/37i9dQZF1DX14CbVHtvHRB"
                },
                "href": "https://api.spotify.com/v1/playlists/37i9dQZF1DX14CbVHtvHRB",
                "id": "37i9dQZF1DX14CbVHtvHRB",
                "images": [
                    {
                        "height": null,
                        "url": "https://i.scdn.co/image/ab67706f00000002cac7686555c2bc3bf267d555",
                        "width": null
                    }
                ],
                "name": "Trending Valentine's Hits ",
                "owner": {
                    "display_name": "Spotify",
                    "external_urls": {
                        "spotify": "https://open.spotify.com/user/spotify"
                    },
                    "href": "https://api.spotify.com/v1/users/spotify",
                    "id": "spotify",
                    "type": "user",
                    "uri": "spotify:user:spotify"
                },
                "primary_color": "#ffffff",
                "public": true,
                "snapshot_id": "ZcRjdQAAAAC7xn7z6Edr9bd/s8dbQ7Un",
                "tracks": {
                    "href": "https://api.spotify.com/v1/playlists/37i9dQZF1DX14CbVHtvHRB/tracks",
                    "total": 75
                },
                "type": "playlist",
                "uri": "spotify:playlist:37i9dQZF1DX14CbVHtvHRB"
            }
        ],
        "limit": 10,
        "next": "https://api.spotify.com/v1/browse/featured-playlists?offset=15&limit=10&locale=en-US%2Cen",
        "offset": 5,
        "previous": "https://api.spotify.com/v1/browse/featured-playlists?offset=0&limit=10&locale=en-US%2Cen",
        "total": 100
    }
}